e ---------------------5h7p5-------------------------------------
B --7p5-5--8--5--7--5---------7p5--0--5--------------------------
G ---------------------------------------------------------------
D ---------------------------------------------------------------
A ---------------------------------------------------------------
E ---------------------------------------------------------------
